test/build/waves/spiModule_test.vcd
$date
	Thu Mar 12 00:26:29 2026
$end

$version
	Synopsys VCS version V-2023.12-SP2-1_Full64
$end

$timescale
	1ps
$end

$comment Csum: 1 a371a0d86ffbb8b9 $end


$scope module spiModule_test $end
$var reg 1 ! clk $end
$var reg 1 " rst $end
$var reg 1 # sclk $end
$var reg 1 $ cs $end
$var reg 1 % mosi $end
$var reg 8 & data_out [7:0] $end
$var reg 1 ' val $end
$var reg 1 ( rdy $end

$scope module t $end
$var reg 1 ) failed $end
$var reg 32 * n [31:0] $end
$var reg 32 + cycles [31:0] $end
$var reg 1 , clk $end
$var reg 1 - rst $end
$var reg 32 . test_suite [31:0] $end
$var reg 32 / seed [31:0] $end

$scope task test_bench_begin $end
$upscope $end


$scope task test_bench_end $end
$upscope $end


$scope task test_suite_begin $end
$upscope $end


$scope task test_suite_end $end
$upscope $end


$scope task test_case_begin $end
$upscope $end


$scope task test_case_end $end
$upscope $end

$upscope $end


$scope module dut $end
$var wire 1 0 clk $end
$var wire 1 1 rst $end
$var wire 1 2 cs $end
$var wire 1 3 mosi $end
$var wire 1 4 miso $end
$var wire 1 5 sclk $end
$var wire 8 6 data_out [7:0] $end
$var reg 1 7 val $end
$var wire 1 8 rdy $end
$var reg 8 9 shift_reg [7:0] $end
$var reg 3 : counter [2:0] $end
$var reg 1 ; s1 $end
$var reg 1 < s2 $end
$var reg 1 = prev $end
$var reg 1 > cs1 $end
$var reg 1 ? cs2 $end
$var reg 1 @ clk_rise $end
$var reg 8 A data_send [7:0] $end
$upscope $end

$upscope $end

$enddefinitions $end

#0
$dumpvars
0@
x$
x>
x?
x2
x3
x8
x1
x7
0)
04
x%
x=
x(
x"
0;
x<
0#
1,
x-
x'
bxxx :
bxxxxxxxx &
bxxxxxxxx A
bxxxxxxxx 6
bxxxxxxxx 9
b00000000000000000000000000000001 +
b00000000000000000000000000000000 *
b11011110101011011011111011101111 /
b00000000000000000000000000000000 .
1!
10
05
$end
#1000
1-
1"
11
#5000
0,
0!
00
#10000
1,
1!
10
b00000000000000000000000000000000 +
1>
1?
0<
0=
b000 :
b00000000 9
07
0'
b00000000 A
b00000000 6
b00000000 &
#15000
0,
0!
00
#20000
1,
1!
10
#25000
0,
0!
00
#30000
1,
1!
10
#31000
0-
0"
01
1$
12
0%
03
1(
18
#35000
0,
0!
00
#40000
1,
1!
10
b00000000000000000000000000000001 +
#45000
0,
0!
00
#50000
1#
15
1,
1!
10
b00000000000000000000000000000010 +
1;
#55000
0,
0!
00
#60000
1,
1!
10
b00000000000000000000000000000011 +
1<
#65000
0,
0!
00
#70000
1,
1!
10
1-
1"
11
b00000000000000000000000000000100 +
1@
1=
#75000
0,
0!
00
#80000
1,
1!
10
b00000000000000000000000000000000 +
0@
0;
0<
0=
#85000
0,
0!
00
#90000
1,
1!
10
#95000
0,
0!
00
#100000
0#
05
0-
0"
01
0(
08
1,
1!
10
b00000000000000000000000000000001 +
#105000
0,
0!
00
#110000
1,
1!
10
b00000000000000000000000000000010 +
#115000
0,
0!
00
#120000
1,
1!
10
b00000000000000000000000000000011 +
#125000
0,
0!
00
#130000
1,
1!
10
b00000000000000000000000000000100 +
#135000
0,
0!
00
#140000
1,
1!
10
b00000000000000000000000000000101 +
#145000
0,
0!
00
#150000
1#
15
1,
1!
10
b00000000000000000000000000000110 +
1;
#155000
0,
0!
00
#160000
1,
1!
10
b00000000000000000000000000000111 +
1<
#165000
0,
0!
00
#170000
1,
1!
10
b00000000000000000000000000001000 +
1@
1=
#175000
0,
0!
00
#180000
1,
1!
10
b00000000000000000000000000001001 +
0@
#185000
0,
0!
00
#190000
1,
1!
10
b00000000000000000000000000001010 +
#195000
0,
0!
00
#200000
0#
05
1,
1!
10
1%
13
0$
02
b00000000000000000000000000001011 +
0>
0;
#205000
0,
0!
00
#210000
1,
1!
10
b00000000000000000000000000001100 +
0?
0<
#215000
0,
0!
00
#220000
1,
1!
10
b00000000000000000000000000001101 +
0=
#225000
0,
0!
00
#230000
1,
1!
10
b00000000000000000000000000001110 +
#235000
0,
0!
00
#240000
1,
1!
10
b00000000000000000000000000001111 +
#245000
0,
0!
00
#250000
1#
15
1,
1!
10
b00000000000000000000000000010000 +
1;
#255000
0,
0!
00
#260000
1,
1!
10
b00000000000000000000000000010001 +
1<
#265000
0,
0!
00
#270000
1,
1!
10
b00000000000000000000000000010010 +
1@
1=
#275000
0,
0!
00
#280000
1,
1!
10
b00000000000000000000000000010011 +
0@
b001 :
b00000001 9
#285000
0,
0!
00
#290000
1,
1!
10
b00000000000000000000000000010100 +
#295000
0,
0!
00
#300000
0#
05
1,
1!
10
0%
03
b00000000000000000000000000010101 +
0;
#305000
0,
0!
00
#310000
1,
1!
10
b00000000000000000000000000010110 +
0<
#315000
0,
0!
00
#320000
1,
1!
10
b00000000000000000000000000010111 +
0=
#325000
0,
0!
00
#330000
1,
1!
10
b00000000000000000000000000011000 +
#335000
0,
0!
00
#340000
1,
1!
10
b00000000000000000000000000011001 +
#345000
0,
0!
00
#350000
1#
15
1,
1!
10
b00000000000000000000000000011010 +
1;
#355000
0,
0!
00
#360000
1,
1!
10
b00000000000000000000000000011011 +
1<
#365000
0,
0!
00
#370000
1,
1!
10
b00000000000000000000000000011100 +
1@
1=
#375000
0,
0!
00
#380000
1,
1!
10
b00000000000000000000000000011101 +
0@
b010 :
b00000010 9
#385000
0,
0!
00
#390000
1,
1!
10
b00000000000000000000000000011110 +
#395000
0,
0!
00
#400000
0#
05
1,
1!
10
1%
13
b00000000000000000000000000011111 +
0;
#405000
0,
0!
00
#410000
1,
1!
10
b00000000000000000000000000100000 +
0<
#415000
0,
0!
00
#420000
1,
1!
10
b00000000000000000000000000100001 +
0=
#425000
0,
0!
00
#430000
1,
1!
10
b00000000000000000000000000100010 +
#435000
0,
0!
00
#440000
1,
1!
10
b00000000000000000000000000100011 +
#445000
0,
0!
00
#450000
1#
15
1,
1!
10
b00000000000000000000000000100100 +
1;
#455000
0,
0!
00
#460000
1,
1!
10
b00000000000000000000000000100101 +
1<
#465000
0,
0!
00
#470000
1,
1!
10
b00000000000000000000000000100110 +
1@
1=
#475000
0,
0!
00
#480000
1,
1!
10
b00000000000000000000000000100111 +
0@
b011 :
b00000101 9
#485000
0,
0!
00
#490000
1,
1!
10
b00000000000000000000000000101000 +
#495000
0,
0!
00
#500000
0#
05
1,
1!
10
0%
03
b00000000000000000000000000101001 +
0;
#505000
0,
0!
00
#510000
1,
1!
10
b00000000000000000000000000101010 +
0<
#515000
0,
0!
00
#520000
1,
1!
10
b00000000000000000000000000101011 +
0=
#525000
0,
0!
00
#530000
1,
1!
10
b00000000000000000000000000101100 +
#535000
0,
0!
00
#540000
1,
1!
10
b00000000000000000000000000101101 +
#545000
0,
0!
00
#550000
1#
15
1,
1!
10
b00000000000000000000000000101110 +
1;
#555000
0,
0!
00
#560000
1,
1!
10
b00000000000000000000000000101111 +
1<
#565000
0,
0!
00
#570000
1,
1!
10
b00000000000000000000000000110000 +
1@
1=
#575000
0,
0!
00
#580000
1,
1!
10
b00000000000000000000000000110001 +
0@
b100 :
b00001010 9
#585000
0,
0!
00
#590000
1,
1!
10
b00000000000000000000000000110010 +
#595000
0,
0!
00
#600000
0#
05
1,
1!
10
1%
13
b00000000000000000000000000110011 +
0;
#605000
0,
0!
00
#610000
1,
1!
10
b00000000000000000000000000110100 +
0<
#615000
0,
0!
00
#620000
1,
1!
10
b00000000000000000000000000110101 +
0=
#625000
0,
0!
00
#630000
1,
1!
10
b00000000000000000000000000110110 +
#635000
0,
0!
00
#640000
1,
1!
10
b00000000000000000000000000110111 +
#645000
0,
0!
00
#650000
1#
15
1,
1!
10
b00000000000000000000000000111000 +
1;
#655000
0,
0!
00
#660000
1,
1!
10
b00000000000000000000000000111001 +
1<
#665000
0,
0!
00
#670000
1,
1!
10
b00000000000000000000000000111010 +
1@
1=
#675000
0,
0!
00
#680000
1,
1!
10
b00000000000000000000000000111011 +
0@
b101 :
b00010101 9
#685000
0,
0!
00
#690000
1,
1!
10
b00000000000000000000000000111100 +
#695000
0,
0!
00
#700000
0#
05
1,
1!
10
0%
03
b00000000000000000000000000111101 +
0;
#705000
0,
0!
00
#710000
1,
1!
10
b00000000000000000000000000111110 +
0<
#715000
0,
0!
00
#720000
1,
1!
10
b00000000000000000000000000111111 +
0=
#725000
0,
0!
00
#730000
1,
1!
10
b00000000000000000000000001000000 +
#735000
0,
0!
00
#740000
1,
1!
10
b00000000000000000000000001000001 +
#745000
0,
0!
00
#750000
1#
15
1,
1!
10
b00000000000000000000000001000010 +
1;
#755000
0,
0!
00
#760000
1,
1!
10
b00000000000000000000000001000011 +
1<
#765000
0,
0!
00
#770000
1,
1!
10
b00000000000000000000000001000100 +
1@
1=
#775000
0,
0!
00
#780000
1,
1!
10
b00000000000000000000000001000101 +
0@
b110 :
b00101010 9
#785000
0,
0!
00
#790000
1,
1!
10
b00000000000000000000000001000110 +
#795000
0,
0!
00
#800000
0#
05
1,
1!
10
1%
13
b00000000000000000000000001000111 +
0;
#805000
0,
0!
00
#810000
1,
1!
10
b00000000000000000000000001001000 +
0<
#815000
0,
0!
00
#820000
1,
1!
10
b00000000000000000000000001001001 +
0=
#825000
0,
0!
00
#830000
1,
1!
10
b00000000000000000000000001001010 +
#835000
0,
0!
00
#840000
1,
1!
10
b00000000000000000000000001001011 +
#845000
0,
0!
00
#850000
1#
15
1,
1!
10
b00000000000000000000000001001100 +
1;
#855000
0,
0!
00
#860000
1,
1!
10
b00000000000000000000000001001101 +
1<
#865000
0,
0!
00
#870000
1,
1!
10
b00000000000000000000000001001110 +
1@
1=
#875000
0,
0!
00
#880000
1,
1!
10
b00000000000000000000000001001111 +
0@
b111 :
b01010101 9
#885000
0,
0!
00
#890000
1,
1!
10
b00000000000000000000000001010000 +
#895000
0,
0!
00
#900000
0#
05
1,
1!
10
0%
03
b00000000000000000000000001010001 +
0;
#905000
0,
0!
00
#910000
1,
1!
10
b00000000000000000000000001010010 +
0<
#915000
0,
0!
00
#920000
1,
1!
10
b00000000000000000000000001010011 +
0=
#925000
0,
0!
00
#930000
1,
1!
10
b00000000000000000000000001010100 +
#935000
0,
0!
00
#940000
1,
1!
10
b00000000000000000000000001010101 +
#945000
0,
0!
00
#950000
1#
15
1,
1!
10
b00000000000000000000000001010110 +
1;
#955000
0,
0!
00
#960000
1,
1!
10
b00000000000000000000000001010111 +
1<
#965000
0,
0!
00
#970000
1,
1!
10
b00000000000000000000000001011000 +
1@
1=
#975000
0,
0!
00
#980000
1,
1!
10
b00000000000000000000000001011001 +
0@
b000 :
b10101010 9
17
1'
b10101010 A
b10101010 6
b10101010 &
#985000
0,
0!
00
#990000
1,
1!
10
b00000000000000000000000001011010 +
#995000
0,
0!
00
#1000000
0#
05
1,
1!
10
1$
12
1(
18
b00000000000000000000000001011011 +
1>
0;
07
0'
1-
1"
11
#1005000
0,
0!
00
#1010000
1,
1!
10
b00000000000000000000000000000000 +
1?
0<
0=
b00000000 9
b00000000 A
b00000000 6
b00000000 &
#1015000
0,
0!
00
#1020000
1,
1!
10
#1025000
0,
0!
00
#1030000
0-
0"
01
0(
08
1,
1!
10
b00000000000000000000000000000001 +
#1035000
0,
0!
00
#1040000
1,
1!
10
b00000000000000000000000000000010 +
#1045000
0,
0!
00
#1050000
1#
15
1,
1!
10
b00000000000000000000000000000011 +
1;
#1055000
0,
0!
00
#1060000
1,
1!
10
b00000000000000000000000000000100 +
1<
#1065000
0,
0!
00
#1070000
1,
1!
10
b00000000000000000000000000000101 +
1@
1=
#1075000
0,
0!
00
#1080000
1,
1!
10
b00000000000000000000000000000110 +
0@
#1085000
0,
0!
00
#1090000
1,
1!
10
b00000000000000000000000000000111 +
#1095000
0,
0!
00
#1100000
0#
05
1,
1!
10
b00000000000000000000000000001000 +
0;
#1105000
0,
0!
00
#1110000
1,
1!
10
b00000000000000000000000000001001 +
0<
#1115000
0,
0!
00
#1120000
1,
1!
10
b00000000000000000000000000001010 +
0=
#1125000
0,
0!
00
#1130000
1,
1!
10
b00000000000000000000000000001011 +
#1135000
0,
0!
00
#1140000
1,
1!
10
b00000000000000000000000000001100 +
#1145000
0,
0!
00
#1150000
1#
15
1,
1!
10
b00000000000000000000000000001101 +
1;
#1155000
0,
0!
00
#1160000
1,
1!
10
b00000000000000000000000000001110 +
1<
#1165000
0,
0!
00
#1170000
1,
1!
10
b00000000000000000000000000001111 +
1@
1=
#1175000
0,
0!
00
#1180000
1,
1!
10
b00000000000000000000000000010000 +
0@
#1185000
0,
0!
00
#1190000
1,
1!
10
b00000000000000000000000000010001 +
#1195000
0,
0!
00
#1200000
0#
05
1,
1!
10
1%
13
b00000000000000000000000000010010 +
0;
#1205000
0,
0!
00
#1210000
1,
1!
10
b00000000000000000000000000010011 +
0<
#1215000
0,
0!
00
#1220000
1,
1!
10
b00000000000000000000000000010100 +
0=
#1225000
0,
0!
00
#1230000
1,
1!
10
b00000000000000000000000000010101 +
#1235000
0,
0!
00
#1240000
1,
1!
10
b00000000000000000000000000010110 +
#1245000
0,
0!
00
#1250000
1#
15
1,
1!
10
b00000000000000000000000000010111 +
1;
#1255000
0,
0!
00
#1260000
1,
1!
10
b00000000000000000000000000011000 +
1<
#1265000
0,
0!
00
#1270000
1,
1!
10
b00000000000000000000000000011001 +
1@
1=
#1275000
0,
0!
00
#1280000
1,
1!
10
b00000000000000000000000000011010 +
0@
#1285000
0,
0!
00
#1290000
1,
1!
10
b00000000000000000000000000011011 +
#1295000
0,
0!
00
#1300000
0#
05
1,
1!
10
b00000000000000000000000000011100 +
0;
#1305000
0,
0!
00
#1310000
1,
1!
10
b00000000000000000000000000011101 +
0<
#1315000
0,
0!
00
#1320000
1,
1!
10
b00000000000000000000000000011110 +
0=
#1325000
0,
0!
00
#1330000
1,
1!
10
b00000000000000000000000000011111 +
#1335000
0,
0!
00
#1340000
1,
1!
10
b00000000000000000000000000100000 +
#1345000
0,
0!
00
#1350000
1#
15
1,
1!
10
b00000000000000000000000000100001 +
1;
#1355000
0,
0!
00
#1360000
1,
1!
10
b00000000000000000000000000100010 +
1<
#1365000
0,
0!
00
#1370000
1,
1!
10
b00000000000000000000000000100011 +
1@
1=
#1375000
0,
0!
00
#1380000
1,
1!
10
b00000000000000000000000000100100 +
0@
#1385000
0,
0!
00
#1390000
1,
1!
10
b00000000000000000000000000100101 +
#1395000
0,
0!
00
#1400000
0#
05
1,
1!
10
b00000000000000000000000000100110 +
0;
#1405000
0,
0!
00
#1410000
1,
1!
10
b00000000000000000000000000100111 +
0<
#1415000
0,
0!
00
#1420000
1,
1!
10
b00000000000000000000000000101000 +
0=
#1425000
0,
0!
00
#1430000
1,
1!
10
b00000000000000000000000000101001 +
#1435000
0,
0!
00
#1440000
1,
1!
10
b00000000000000000000000000101010 +
#1445000
0,
0!
00
#1450000
1#
15
1,
1!
10
b00000000000000000000000000101011 +
1;
#1455000
0,
0!
00
#1460000
1,
1!
10
b00000000000000000000000000101100 +
1<
#1465000
0,
0!
00
#1470000
1,
1!
10
b00000000000000000000000000101101 +
1@
1=
#1475000
0,
0!
00
#1480000
1,
1!
10
b00000000000000000000000000101110 +
0@
#1485000
0,
0!
00
#1490000
1,
1!
10
b00000000000000000000000000101111 +
#1495000
0,
0!
00
#1500000
0#
05
1,
1!
10
b00000000000000000000000000110000 +
0;
#1505000
0,
0!
00
#1510000
1,
1!
10
b00000000000000000000000000110001 +
0<
#1515000
0,
0!
00
#1520000
1,
1!
10
b00000000000000000000000000110010 +
0=
#1525000
0,
0!
00
#1530000
1,
1!
10
b00000000000000000000000000110011 +
#1535000
0,
0!
00
#1540000
1,
1!
10
b00000000000000000000000000110100 +
#1545000
0,
0!
00
#1550000
1#
15
1,
1!
10
b00000000000000000000000000110101 +
1;
#1555000
0,
0!
00
#1560000
1,
1!
10
b00000000000000000000000000110110 +
1<
#1565000
0,
0!
00
#1570000
1,
1!
10
b00000000000000000000000000110111 +
1@
1=
#1575000
0,
0!
00
#1580000
1,
1!
10
b00000000000000000000000000111000 +
0@
#1585000
0,
0!
00
#1590000
1,
1!
10
b00000000000000000000000000111001 +
#1595000
0,
0!
00
#1600000
0#
05
1,
1!
10
0%
03
b00000000000000000000000000111010 +
0;
#1605000
0,
0!
00
#1610000
1,
1!
10
b00000000000000000000000000111011 +
0<
#1615000
0,
0!
00
#1620000
1,
1!
10
b00000000000000000000000000111100 +
0=
#1625000
0,
0!
00
#1630000
1,
1!
10
b00000000000000000000000000111101 +
#1635000
0,
0!
00
#1640000
1,
1!
10
b00000000000000000000000000111110 +
#1645000
0,
0!
00
#1650000
1#
15
1,
1!
10
b00000000000000000000000000111111 +
1;
#1655000
0,
0!
00
#1660000
1,
1!
10
b00000000000000000000000001000000 +
1<
#1665000
0,
0!
00
#1670000
1,
1!
10
b00000000000000000000000001000001 +
1@
1=
#1675000
0,
0!
00
#1680000
1,
1!
10
b00000000000000000000000001000010 +
0@
#1685000
0,
0!
00
#1690000
1,
1!
10
b00000000000000000000000001000011 +
#1695000
0,
0!
00
#1700000
0#
05
1,
1!
10
b00000000000000000000000001000100 +
0;
#1705000
0,
0!
00
#1710000
1,
1!
10
b00000000000000000000000001000101 +
0<
#1715000
0,
0!
00
#1720000
1,
1!
10
b00000000000000000000000001000110 +
0=
#1725000
0,
0!
00
#1730000
1,
1!
10
b00000000000000000000000001000111 +
#1735000
0,
0!
00
#1740000
1,
1!
10
b00000000000000000000000001001000 +
#1745000
0,
0!
00
#1750000
1#
15
1,
1!
10
b00000000000000000000000001001001 +
1;
#1755000
0,
0!
00
#1760000
1,
1!
10
b00000000000000000000000001001010 +
1<
#1765000
0,
0!
00
#1770000
1,
1!
10
b00000000000000000000000001001011 +
1@
1=
#1775000
0,
0!
00
#1780000
1,
1!
10
b00000000000000000000000001001100 +
0@
#1785000
0,
0!
00
#1790000
1,
1!
10
b00000000000000000000000001001101 +
#1795000
0,
0!
00
#1800000
0#
05
1,
1!
10
b00000000000000000000000001001110 +
0;
#1805000
0,
0!
00
#1810000
1,
1!
10
b00000000000000000000000001001111 +
0<
#1815000
0,
0!
00
#1820000
1,
1!
10
b00000000000000000000000001010000 +
0=
#1825000
0,
0!
00
#1830000
1,
1!
10
b00000000000000000000000001010001 +
#1835000
0,
0!
00
#1840000
1,
1!
10
b00000000000000000000000001010010 +
#1845000
0,
0!
00
#1850000
1#
15
1,
1!
10
b00000000000000000000000001010011 +
1;
#1855000
0,
0!
00
#1860000
1,
1!
10
b00000000000000000000000001010100 +
1<
#1865000
0,
0!
00
#1870000
1,
1!
10
b00000000000000000000000001010101 +
1@
1=
#1875000
0,
0!
00
#1880000
1,
1!
10
b00000000000000000000000001010110 +
0@
#1885000
0,
0!
00
#1890000
1,
1!
10
b00000000000000000000000001010111 +
#1895000
0,
0!
00
#1900000
0#
05
1,
1!
10
b00000000000000000000000001011000 +
0;
#1905000
0,
0!
00
#1910000
1,
1!
10
b00000000000000000000000001011001 +
0<
#1915000
0,
0!
00
#1920000
1,
1!
10
b00000000000000000000000001011010 +
0=
#1925000
0,
0!
00
#1930000
1,
1!
10
b00000000000000000000000001011011 +
#1935000
0,
0!
00
#1940000
1,
1!
10
1-
1"
11
b00000000000000000000000001011100 +
#1945000
0,
0!
00
#1950000
1#
15
1,
1!
10
b00000000000000000000000000000000 +
#1955000
0,
0!
00
#1960000
1,
1!
10
#1965000
0,
0!
00
#1970000
0-
0"
01
1(
18
0(
08
1,
1!
10
b00000000000000000000000000000001 +
1;
#1975000
0,
0!
00
#1980000
1,
1!
10
b00000000000000000000000000000010 +
1<
#1985000
0,
0!
00
#1990000
1,
1!
10
b00000000000000000000000000000011 +
1@
1=
#1995000
0,
0!
00
#2000000
0#
05
1,
1!
10
0$
02
b00000000000000000000000000000100 +
0@
0>
0;
#2005000
0,
0!
00
#2010000
1,
1!
10
b00000000000000000000000000000101 +
0?
0<
#2015000
0,
0!
00
#2020000
1,
1!
10
b00000000000000000000000000000110 +
0=
#2025000
0,
0!
00
#2030000
1,
1!
10
b00000000000000000000000000000111 +
#2035000
0,
0!
00
#2040000
1,
1!
10
b00000000000000000000000000001000 +
#2045000
0,
0!
00
#2050000
1#
15
1,
1!
10
b00000000000000000000000000001001 +
1;
#2055000
0,
0!
00
#2060000
1,
1!
10
b00000000000000000000000000001010 +
1<
#2065000
0,
0!
00
#2070000
1,
1!
10
b00000000000000000000000000001011 +
1@
1=
#2075000
0,
0!
00
#2080000
1,
1!
10
b00000000000000000000000000001100 +
0@
b001 :
#2085000
0,
0!
00
#2090000
1,
1!
10
b00000000000000000000000000001101 +
#2095000
0,
0!
00
#2100000
0#
05
1,
1!
10
b00000000000000000000000000001110 +
0;
#2105000
0,
0!
00
#2110000
1,
1!
10
b00000000000000000000000000001111 +
0<
#2115000
0,
0!
00
#2120000
1,
1!
10
b00000000000000000000000000010000 +
0=
#2125000
0,
0!
00
#2130000
1,
1!
10
b00000000000000000000000000010001 +
#2135000
0,
0!
00
#2140000
1,
1!
10
b00000000000000000000000000010010 +
#2145000
0,
0!
00
#2150000
1#
15
1,
1!
10
b00000000000000000000000000010011 +
1;
#2155000
0,
0!
00
#2160000
1,
1!
10
b00000000000000000000000000010100 +
1<
#2165000
0,
0!
00
#2170000
1,
1!
10
b00000000000000000000000000010101 +
1@
1=
#2175000
0,
0!
00
#2180000
1,
1!
10
b00000000000000000000000000010110 +
0@
b010 :
#2185000
0,
0!
00
#2190000
1,
1!
10
b00000000000000000000000000010111 +
#2195000
0,
0!
00
#2200000
0#
05
1,
1!
10
b00000000000000000000000000011000 +
0;
#2205000
0,
0!
00
#2210000
1,
1!
10
b00000000000000000000000000011001 +
0<
#2215000
0,
0!
00
#2220000
1,
1!
10
b00000000000000000000000000011010 +
0=
#2225000
0,
0!
00
#2230000
1,
1!
10
b00000000000000000000000000011011 +
#2235000
0,
0!
00
#2240000
1,
1!
10
b00000000000000000000000000011100 +
#2245000
0,
0!
00
#2250000
1#
15
1,
1!
10
b00000000000000000000000000011101 +
1;
#2255000
0,
0!
00
#2260000
1,
1!
10
b00000000000000000000000000011110 +
1<
#2265000
0,
0!
00
#2270000
1,
1!
10
b00000000000000000000000000011111 +
1@
1=
#2275000
0,
0!
00
#2280000
1,
1!
10
b00000000000000000000000000100000 +
0@
b011 :
#2285000
0,
0!
00
#2290000
1,
1!
10
b00000000000000000000000000100001 +
#2295000
0,
0!
00
#2300000
0#
05
1,
1!
10
1%
13
b00000000000000000000000000100010 +
0;
#2305000
0,
0!
00
#2310000
1,
1!
10
b00000000000000000000000000100011 +
0<
#2315000
0,
0!
00
#2320000
1,
1!
10
b00000000000000000000000000100100 +
0=
#2325000
0,
0!
00
#2330000
1,
1!
10
b00000000000000000000000000100101 +
#2335000
0,
0!
00
#2340000
1,
1!
10
b00000000000000000000000000100110 +
#2345000
0,
0!
00
#2350000
1#
15
1,
1!
10
b00000000000000000000000000100111 +
1;
#2355000
0,
0!
00
#2360000
1,
1!
10
b00000000000000000000000000101000 +
1<
#2365000
0,
0!
00
#2370000
1,
1!
10
b00000000000000000000000000101001 +
1@
1=
#2375000
0,
0!
00
#2380000
1,
1!
10
b00000000000000000000000000101010 +
0@
b100 :
b00000001 9
#2385000
0,
0!
00
#2390000
1,
1!
10
b00000000000000000000000000101011 +
#2395000
0,
0!
00
#2400000
0#
05
1,
1!
10
0%
03
b00000000000000000000000000101100 +
0;
#2405000
0,
0!
00
#2410000
1,
1!
10
b00000000000000000000000000101101 +
0<
#2415000
0,
0!
00
#2420000
1,
1!
10
b00000000000000000000000000101110 +
0=
#2425000
0,
0!
00
#2430000
1,
1!
10
b00000000000000000000000000101111 +
#2435000
0,
0!
00
#2440000
1,
1!
10
b00000000000000000000000000110000 +
#2445000
0,
0!
00
#2450000
1#
15
1,
1!
10
b00000000000000000000000000110001 +
1;
#2455000
0,
0!
00
#2460000
1,
1!
10
b00000000000000000000000000110010 +
1<
#2465000
0,
0!
00
#2470000
1,
1!
10
b00000000000000000000000000110011 +
1@
1=
#2475000
0,
0!
00
#2480000
1,
1!
10
b00000000000000000000000000110100 +
0@
b101 :
b00000010 9
#2485000
0,
0!
00
#2490000
1,
1!
10
b00000000000000000000000000110101 +
#2495000
0,
0!
00
#2500000
0#
05
1,
1!
10
b00000000000000000000000000110110 +
0;
#2505000
0,
0!
00
#2510000
1,
1!
10
b00000000000000000000000000110111 +
0<
#2515000
0,
0!
00
#2520000
1,
1!
10
b00000000000000000000000000111000 +
0=
#2525000
0,
0!
00
#2530000
1,
1!
10
b00000000000000000000000000111001 +
#2535000
0,
0!
00
#2540000
1,
1!
10
b00000000000000000000000000111010 +
#2545000
0,
0!
00
#2550000
1#
15
1,
1!
10
b00000000000000000000000000111011 +
1;
#2555000
0,
0!
00
#2560000
1,
1!
10
b00000000000000000000000000111100 +
1<
#2565000
0,
0!
00
#2570000
1,
1!
10
b00000000000000000000000000111101 +
1@
1=
#2575000
0,
0!
00
#2580000
1,
1!
10
b00000000000000000000000000111110 +
0@
b110 :
b00000100 9
#2585000
0,
0!
00
#2590000
1,
1!
10
b00000000000000000000000000111111 +
#2595000
0,
0!
00
#2600000
0#
05
1,
1!
10
1%
13
b00000000000000000000000001000000 +
0;
#2605000
0,
0!
00
#2610000
1,
1!
10
b00000000000000000000000001000001 +
0<
#2615000
0,
0!
00
#2620000
1,
1!
10
b00000000000000000000000001000010 +
0=
#2625000
0,
0!
00
#2630000
1,
1!
10
b00000000000000000000000001000011 +
#2635000
0,
0!
00
#2640000
1,
1!
10
b00000000000000000000000001000100 +
#2645000
0,
0!
00
#2650000
1#
15
1,
1!
10
b00000000000000000000000001000101 +
1;
#2655000
0,
0!
00
#2660000
1,
1!
10
b00000000000000000000000001000110 +
1<
#2665000
0,
0!
00
#2670000
1,
1!
10
b00000000000000000000000001000111 +
1@
1=
#2675000
0,
0!
00
#2680000
1,
1!
10
b00000000000000000000000001001000 +
0@
b111 :
b00001001 9
#2685000
0,
0!
00
#2690000
1,
1!
10
b00000000000000000000000001001001 +
#2695000
0,
0!
00
#2700000
0#
05
1,
1!
10
0%
03
b00000000000000000000000001001010 +
0;
#2705000
0,
0!
00
#2710000
1,
1!
10
b00000000000000000000000001001011 +
0<
#2715000
0,
0!
00
#2720000
1,
1!
10
b00000000000000000000000001001100 +
0=
#2725000
0,
0!
00
#2730000
1,
1!
10
b00000000000000000000000001001101 +
#2735000
0,
0!
00
#2740000
1,
1!
10
b00000000000000000000000001001110 +
#2745000
0,
0!
00
#2750000
1#
15
1,
1!
10
b00000000000000000000000001001111 +
1;
#2755000
0,
0!
00
#2760000
1,
1!
10
b00000000000000000000000001010000 +
1<
#2765000
0,
0!
00
#2770000
1,
1!
10
b00000000000000000000000001010001 +
1@
1=
#2775000
0,
0!
00
#2780000
1,
1!
10
b00000000000000000000000001010010 +
0@
b000 :
b00010010 9
17
1'
b00010010 A
b00010010 6
b00010010 &
#2785000
0,
0!
00
#2790000
1,
1!
10
b00000000000000000000000001010011 +
#2795000
0,
0!
00
#2800000
0#
05
1,
1!
10
1$
12
1(
18
b00000000000000000000000001010100 +
1>
0;
07
0'
0(
08
#2805000
0,
0!
00
#2810000
1,
1!
10
b00000000000000000000000001010101 +
1?
0<
#2815000
0,
0!
00
#2820000
1,
1!
10
b00000000000000000000000001010110 +
0=
b00000000 9
#2825000
0,
0!
00
#2830000
1,
1!
10
b00000000000000000000000001010111 +
#2835000
0,
0!
00
#2840000
1,
1!
10
b00000000000000000000000001011000 +
#2845000
0,
0!
00
#2850000
1#
15
1,
1!
10
b00000000000000000000000001011001 +
1;
#2855000
0,
0!
00
#2860000
1,
1!
10
b00000000000000000000000001011010 +
1<
#2865000
0,
0!
00
#2870000
1,
1!
10
b00000000000000000000000001011011 +
1@
1=
#2875000
0,
0!
00
#2880000
1,
1!
10
b00000000000000000000000001011100 +
0@
#2885000
0,
0!
00
#2890000
1,
1!
10
b00000000000000000000000001011101 +
#2895000
0,
0!
00
#2900000
0#
05
1,
1!
10
0$
02
b00000000000000000000000001011110 +
0>
0;
#2905000
0,
0!
00
#2910000
1,
1!
10
b00000000000000000000000001011111 +
0?
0<
#2915000
0,
0!
00
#2920000
1,
1!
10
b00000000000000000000000001100000 +
0=
#2925000
0,
0!
00
#2930000
1,
1!
10
b00000000000000000000000001100001 +
#2935000
0,
0!
00
#2940000
1,
1!
10
b00000000000000000000000001100010 +
#2945000
0,
0!
00
#2950000
1#
15
1,
1!
10
b00000000000000000000000001100011 +
1;
#2955000
0,
0!
00
#2960000
1,
1!
10
b00000000000000000000000001100100 +
1<
#2965000
0,
0!
00
#2970000
1,
1!
10
b00000000000000000000000001100101 +
1@
1=
#2975000
0,
0!
00
#2980000
1,
1!
10
b00000000000000000000000001100110 +
0@
b001 :
#2985000
0,
0!
00
#2990000
1,
1!
10
b00000000000000000000000001100111 +
#2995000
0,
0!
00
#3000000
0#
05
1,
1!
10
b00000000000000000000000001101000 +
0;
#3005000
0,
0!
00
#3010000
1,
1!
10
b00000000000000000000000001101001 +
0<
#3015000
0,
0!
00
#3020000
1,
1!
10
b00000000000000000000000001101010 +
0=
#3025000
0,
0!
00
#3030000
1,
1!
10
b00000000000000000000000001101011 +
#3035000
0,
0!
00
#3040000
1,
1!
10
b00000000000000000000000001101100 +
#3045000
0,
0!
00
#3050000
1#
15
1,
1!
10
b00000000000000000000000001101101 +
1;
#3055000
0,
0!
00
#3060000
1,
1!
10
b00000000000000000000000001101110 +
1<
#3065000
0,
0!
00
#3070000
1,
1!
10
b00000000000000000000000001101111 +
1@
1=
#3075000
0,
0!
00
#3080000
1,
1!
10
b00000000000000000000000001110000 +
0@
b010 :
#3085000
0,
0!
00
